<svg xmlns="http://www.w3.org/2000/svg" width="21" height="24" viewBox="0 0 21 24">
  <text id="_" data-name="" transform="translate(0 21)" fill="red" font-size="24" font-family="FontAwesome5Brands-Regular, "Font Awesome 5 Brands""><tspan x="0" y="0"></tspan></text>
</svg>
